{
	"RECORDS": {
		"RECORD": [
			{
				"id": "1",
				"code": "A1",
				"lat": "22",
				"lon": "30,5",
				"orbiter": "IV-133-H3",
				"tube_length": "2,2",
				"tube_width": "0,55",
				"crater_width": "0,44",
				"roof_thickness": "110",
				"rank": "B"
			},
			{
				"id": "2",
				"code": "A2",
				"lat": "22",
				"lon": "30,5",
				"orbiter": "IV-133-H3",
				"tube_length": "1,1",
				"tube_width": "0,55",
				"crater_width": "0,22",
				"roof_thickness": "110",
				"rank": "A"
			},
			{
				"id": "3",
				"code": "A3",
				"lat": "22",
				"lon": "30,5",
				"orbiter": "IV-133-H3",
				"tube_length": "0,55",
				"tube_width": "0,33",
				"crater_width": "0,22",
				"roof_thickness": "110",
				"rank": "C"
			},
			{
				"id": "4",
				"code": "B1",
				"lat": "22",
				"lon": "29",
				"orbiter": "IV-133-H3",
				"tube_length": "0,8",
				"tube_width": "0,44",
				"crater_width": "22",
				"roof_thickness": "110",
				"rank": "B"
			},
			{
				"id": "5",
				"code": "B2",
				"lat": "22",
				"lon": "29",
				"orbiter": "IV-133-H3",
				"tube_length": "1,1",
				"tube_width": "0,55",
				"crater_width": "0,55",
				"roof_thickness": "276",
				"rank": "C"
			},
			{
				"id": "6",
				"code": "B3",
				"lat": "22",
				"lon": "29",
				"orbiter": "IV-133-H3",
				"tube_length": "4,4",
				"tube_width": "0,03",
				"crater_width": "0,22",
				"roof_thickness": "110",
				"rank": "B"
			},
			{
				"id": "7",
				"code": "B4",
				"lat": "22",
				"lon": "29",
				"orbiter": "IV-133-H3",
				"tube_length": "0,55",
				"tube_width": "0,33",
				"crater_width": "0,44",
				"roof_thickness": "220",
				"rank": "C"
			},
			{
				"id": "8",
				"code": "B5",
				"lat": "22",
				"lon": "29",
				"orbiter": "IV-133-H3",
				"tube_length": "1,1",
				"tube_width": "0,33",
				"crater_width": "0,11",
				"roof_thickness": "56",
				"rank": "C"
			},
			{
				"id": "9",
				"code": "B6",
				"lat": "22",
				"lon": "29",
				"orbiter": "IV-133-H3",
				"tube_length": "5,5",
				"tube_width": "0,44",
				"crater_width": "0,44",
				"roof_thickness": "220",
				"rank": "B"
			},
			{
				"id": "10",
				"code": "C1",
				"lat": "35",
				"lon": "43",
				"orbiter": "V-182-M",
				"tube_length": "0,9",
				"tube_width": "0,72",
				"crater_width": "0,06",
				"roof_thickness": "30",
				"rank": "A"
			},
			{
				"id": "11",
				"code": "C2",
				"lat": "35",
				"lon": "43",
				"orbiter": "V-182-M",
				"tube_length": "1,2",
				"tube_width": "0,97",
				"crater_width": "0,09",
				"roof_thickness": "46",
				"rank": "A"
			},
			{
				"id": "12",
				"code": "C3",
				"lat": "35",
				"lon": "43",
				"orbiter": "V-182-M",
				"tube_length": "0,66",
				"tube_width": "0,6",
				"crater_width": "0,27",
				"roof_thickness": "136",
				"rank": "B"
			},
			{
				"id": "13",
				"code": "C4",
				"lat": "35",
				"lon": "43",
				"orbiter": "V-182-M",
				"tube_length": "0,54",
				"tube_width": "0,6",
				"crater_width": "0,1",
				"roof_thickness": "60",
				"rank": "A"
			},
			{
				"id": "14",
				"code": "C5",
				"lat": "35",
				"lon": "43",
				"orbiter": "V-182-M",
				"tube_length": "0,6",
				"tube_width": "0,45",
				"crater_width": "0,09",
				"roof_thickness": "46",
				"rank": "A"
			},
			{
				"id": "15",
				"code": "C6",
				"lat": "35",
				"lon": "43",
				"orbiter": "V-182-M",
				"tube_length": "0,6",
				"tube_width": "0,82",
				"crater_width": "0,09",
				"roof_thickness": "46",
				"rank": "A"
			},
			{
				"id": "16",
				"code": "C7",
				"lat": "35",
				"lon": "43",
				"orbiter": "V-182-M",
				"tube_length": "0,51",
				"tube_width": "0,82",
				"crater_width": "0,09",
				"roof_thickness": "46",
				"rank": "A"
			},
			{
				"id": "17",
				"code": "D1",
				"lat": "36",
				"lon": "40",
				"orbiter": "V-182-M",
				"tube_length": "0,9",
				"tube_width": "0,15",
				"crater_width": "0,06",
				"roof_thickness": "30",
				"rank": "C"
			},
			{
				"id": "18",
				"code": "E1",
				"lat": "47,5",
				"lon": "40",
				"orbiter": "IV-158-H2",
				"tube_length": "492",
				"tube_width": "1,2",
				"crater_width": "0,8",
				"roof_thickness": "60",
				"rank": "B"
			},
			{
				"id": "19",
				"code": "E2",
				"lat": "47,5",
				"lon": "57",
				"orbiter": "IV-158-H2",
				"tube_length": "1,2",
				"tube_width": "0,36",
				"crater_width": "",
				"roof_thickness": "",
				"rank": "B"
			},
			{
				"id": "20",
				"code": "E3",
				"lat": "47,5",
				"lon": "57",
				"orbiter": "IV-158-H2",
				"tube_length": "2,4",
				"tube_width": "0,48",
				"crater_width": "0,24",
				"roof_thickness": "120",
				"rank": "B"
			},
			{
				"id": "21",
				"code": "E4",
				"lat": "47,5",
				"lon": "57",
				"orbiter": "IV-158-H2",
				"tube_length": "1,32",
				"tube_width": "0,6",
				"crater_width": "0,24",
				"roof_thickness": "120",
				"rank": "B"
			},
			{
				"id": "22",
				"code": "F1",
				"lat": "30",
				"lon": "48,3",
				"orbiter": "IV-158-H1",
				"tube_length": "2,4",
				"tube_width": "1,2",
				"crater_width": "0,6",
				"roof_thickness": "300",
				"rank": "C"
			},
			{
				"id": "23",
				"code": "G1",
				"lat": "27",
				"lon": "41,75",
				"orbiter": "V-191-M",
				"tube_length": "2,37",
				"tube_width": "0,32",
				"crater_width": "0,38",
				"roof_thickness": "190",
				"rank": "B"
			},
			{
				"id": "24",
				"code": "G2",
				"lat": "26,5",
				"lon": "42",
				"orbiter": "V-191-M",
				"tube_length": "1,87",
				"tube_width": "0,23",
				"crater_width": "0,75",
				"roof_thickness": "375",
				"rank": "C"
			},
			{
				"id": "25",
				"code": "G3",
				"lat": "27",
				"lon": "42",
				"orbiter": "V-191-M",
				"tube_length": "0,88",
				"tube_width": "1,25",
				"crater_width": "0,2",
				"roof_thickness": "100",
				"rank": "C"
			},
			{
				"id": "26",
				"code": "H1",
				"lat": "15,5",
				"lon": "47",
				"orbiter": "IV-150-H2",
				"tube_length": "1,65",
				"tube_width": "0,88",
				"crater_width": "0,22",
				"roof_thickness": "110",
				"rank": "C"
			},
			{
				"id": "27",
				"code": "I1",
				"lat": "10,5",
				"lon": "49",
				"orbiter": "IV-150-H2",
				"tube_length": "1,32",
				"tube_width": "0,88",
				"crater_width": "",
				"roof_thickness": "",
				"rank": "B"
			},
			{
				"id": "28",
				"code": "I2",
				"lat": "10,5",
				"lon": "49",
				"orbiter": "IV-150-H2",
				"tube_length": "1,32",
				"tube_width": "0,77",
				"crater_width": "0,22",
				"roof_thickness": "110",
				"rank": "C"
			},
			{
				"id": "29",
				"code": "I3",
				"lat": "10,5",
				"lon": "49",
				"orbiter": "IV-150-H2",
				"tube_length": "6,6",
				"tube_width": "0,66",
				"crater_width": "",
				"roof_thickness": "",
				"rank": "C"
			},
			{
				"id": "30",
				"code": "I4",
				"lat": "10,5",
				"lon": "49",
				"orbiter": "IV-150-H2",
				"tube_length": "4,6",
				"tube_width": "0,55",
				"crater_width": "0,33",
				"roof_thickness": "165",
				"rank": "C"
			},
			{
				"id": "31",
				"code": "Ja1",
				"lat": "15",
				"lon": "57",
				"orbiter": "V-213-M",
				"tube_length": "0,25",
				"tube_width": "0,33",
				"crater_width": "0,08",
				"roof_thickness": "40",
				"rank": "B"
			},
			{
				"id": "32",
				"code": "Ja2",
				"lat": "15",
				"lon": "57",
				"orbiter": "V-213-M",
				"tube_length": "0,25",
				"tube_width": "0,34",
				"crater_width": "0,25",
				"roof_thickness": "102",
				"rank": "B"
			},
			{
				"id": "33",
				"code": "Ja3",
				"lat": "15",
				"lon": "57",
				"orbiter": "V-213-M",
				"tube_length": "0,25",
				"tube_width": "0,25",
				"crater_width": "0,03",
				"roof_thickness": "15",
				"rank": "B"
			},
			{
				"id": "34",
				"code": "Ja4",
				"lat": "15",
				"lon": "57",
				"orbiter": "V-213-M",
				"tube_length": "0,13",
				"tube_width": "0,33",
				"crater_width": "50",
				"roof_thickness": "25",
				"rank": "C"
			},
			{
				"id": "35",
				"code": "Jb5",
				"lat": "15",
				"lon": "57",
				"orbiter": "V-213-M",
				"tube_length": "0,35",
				"tube_width": "0,37",
				"crater_width": "0,08",
				"roof_thickness": "40",
				"rank": "B"
			},
			{
				"id": "36",
				"code": "Jb6",
				"lat": "15",
				"lon": "57",
				"orbiter": "V-213-M",
				"tube_length": "0,25",
				"tube_width": "32",
				"crater_width": "0,05",
				"roof_thickness": "25",
				"rank": "B"
			},
			{
				"id": "37",
				"code": "Jb7",
				"lat": "15",
				"lon": "57",
				"orbiter": "V-213-M",
				"tube_length": "1,63",
				"tube_width": "0,33",
				"crater_width": "0,15",
				"roof_thickness": "75",
				"rank": "B"
			},
			{
				"id": "38",
				"code": "Jb8",
				"lat": "15",
				"lon": "57",
				"orbiter": "V-213-M",
				"tube_length": "1,63",
				"tube_width": "0,38",
				"crater_width": "0,08",
				"roof_thickness": "40",
				"rank": "C"
			},
			{
				"id": "39",
				"code": "Jb9",
				"lat": "15",
				"lon": "57",
				"orbiter": "V-213-M",
				"tube_length": "7,37",
				"tube_width": "0,47",
				"crater_width": "0,25",
				"roof_thickness": "125",
				"rank": "C"
			},
			{
				"id": "40",
				"code": "Jb10",
				"lat": "15",
				"lon": "57",
				"orbiter": "V-213-M",
				"tube_length": "0,37",
				"tube_width": "0,28",
				"crater_width": "0,08",
				"roof_thickness": "40",
				"rank": "C"
			},
			{
				"id": "41",
				"code": "Jb11",
				"lat": "15",
				"lon": "57",
				"orbiter": "V-213-M",
				"tube_length": "0,75",
				"tube_width": "0,48",
				"crater_width": "0,08",
				"roof_thickness": "40",
				"rank": "C"
			},
			{
				"id": "42",
				"code": "K1",
				"lat": "12",
				"lon": "53",
				"orbiter": "IV-157-H2",
				"tube_length": "6,6",
				"tube_width": "0,55",
				"crater_width": "0,33",
				"roof_thickness": "165",
				"rank": "C"
			},
			{
				"id": "43",
				"code": "K2",
				"lat": "12",
				"lon": "53",
				"orbiter": "IV-157-H2",
				"tube_length": "10,45",
				"tube_width": "1,03",
				"crater_width": "1,1",
				"roof_thickness": "525",
				"rank": "C"
			},
			{
				"id": "44",
				"code": "K3",
				"lat": "12",
				"lon": "53",
				"orbiter": "IV-157-H2",
				"tube_length": "8,8",
				"tube_width": "0,88",
				"crater_width": "0,66",
				"roof_thickness": "330",
				"rank": "C"
			},
			{
				"id": "45",
				"code": "K4",
				"lat": "12",
				"lon": "53",
				"orbiter": "IV-157-H2",
				"tube_length": "2,75",
				"tube_width": "0,66",
				"crater_width": "0,1",
				"roof_thickness": "55",
				"rank": "B"
			},
			{
				"id": "46",
				"code": "K5",
				"lat": "12",
				"lon": "53",
				"orbiter": "IV-157-H2",
				"tube_length": "1,1",
				"tube_width": "0,33",
				"crater_width": "",
				"roof_thickness": "",
				"rank": "B"
			},
			{
				"id": "47",
				"code": "K6",
				"lat": "12",
				"lon": "53",
				"orbiter": "IV-157-H2",
				"tube_length": "5,5",
				"tube_width": "0,55",
				"crater_width": "0,22",
				"roof_thickness": "110",
				"rank": "C"
			},
			{
				"id": "48",
				"code": "L1",
				"lat": "2",
				"lon": "-44",
				"orbiter": "IV-66-H1",
				"tube_length": "3,3",
				"tube_width": "1,32",
				"crater_width": "",
				"roof_thickness": "",
				"rank": "C"
			},
			{
				"id": "49",
				"code": "L2",
				"lat": "2",
				"lon": "-44",
				"orbiter": "IV-66-H1",
				"tube_length": "6,6",
				"tube_width": "1,32",
				"crater_width": "",
				"roof_thickness": "",
				"rank": "C"
			},
			{
				"id": "50",
				"code": "M1",
				"lat": "4",
				"lon": "-28",
				"orbiter": "IV-85-H1",
				"tube_length": "7,7",
				"tube_width": "0,88",
				"crater_width": "",
				"roof_thickness": "",
				"rank": "C"
			},
			{
				"id": "51",
				"code": "M2",
				"lat": "4",
				"lon": "-28",
				"orbiter": "IV-85-H1",
				"tube_length": "4,4",
				"tube_width": "0,55",
				"crater_width": "",
				"roof_thickness": "",
				"rank": "C"
			},
			{
				"id": "52",
				"code": "N1",
				"lat": "11",
				"lon": "-20",
				"orbiter": "IV-85-H2",
				"tube_length": "17,6",
				"tube_width": "0,77",
				"crater_width": "0,99",
				"roof_thickness": "495",
				"rank": "C"
			},
			{
				"id": "53",
				"code": "N2",
				"lat": "11",
				"lon": "-20",
				"orbiter": "IV-85-H2",
				"tube_length": "2,53",
				"tube_width": "1,1",
				"crater_width": "0,33",
				"roof_thickness": "165",
				"rank": "C"
			},
			{
				"id": "54",
				"code": "N3",
				"lat": "11",
				"lon": "-20",
				"orbiter": "IV-85-H2",
				"tube_length": "4,62",
				"tube_width": "0,99",
				"crater_width": "",
				"roof_thickness": "",
				"rank": "C"
			},
			{
				"id": "55",
				"code": "O1",
				"lat": "18",
				"lon": "-26",
				"orbiter": "IV-78-H2",
				"tube_length": "0,77",
				"tube_width": "0,51",
				"crater_width": "0,07",
				"roof_thickness": "35",
				"rank": "B"
			},
			{
				"id": "56",
				"code": "O2",
				"lat": "18",
				"lon": "-26",
				"orbiter": "IV-78-H2",
				"tube_length": "0,32",
				"tube_width": "0,51",
				"crater_width": "0,05",
				"roof_thickness": "25",
				"rank": "B"
			},
			{
				"id": "57",
				"code": "O3",
				"lat": "18",
				"lon": "-26",
				"orbiter": "IV-78-H2",
				"tube_length": "0,32",
				"tube_width": "0,48",
				"crater_width": "0,05",
				"roof_thickness": "25",
				"rank": "B"
			},
			{
				"id": "58",
				"code": "O4",
				"lat": "18",
				"lon": "-26",
				"orbiter": "IV-78-H2",
				"tube_length": "0,88",
				"tube_width": "0,48",
				"crater_width": "0,03",
				"roof_thickness": "15",
				"rank": "B"
			},
			{
				"id": "59",
				"code": "O5",
				"lat": "18",
				"lon": "-26",
				"orbiter": "IV-78-H2",
				"tube_length": "0,77",
				"tube_width": "0,46",
				"crater_width": "0,08",
				"roof_thickness": "40",
				"rank": "B"
			},
			{
				"id": "60",
				"code": "P1",
				"lat": "51",
				"lon": "8",
				"orbiter": "V-129-M",
				"tube_length": "0,84",
				"tube_width": "0,21",
				"crater_width": "0,13",
				"roof_thickness": "65",
				"rank": "B"
			},
			{
				"id": "61",
				"code": "P2",
				"lat": "51",
				"lon": "8",
				"orbiter": "V-129-M",
				"tube_length": "1,26",
				"tube_width": "0,21",
				"crater_width": "0,17",
				"roof_thickness": "85",
				"rank": "B"
			},
			{
				"id": "62",
				"code": "P3",
				"lat": "51",
				"lon": "8",
				"orbiter": "V-129-M",
				"tube_length": "1,68",
				"tube_width": "0,29",
				"crater_width": "0,13",
				"roof_thickness": "65",
				"rank": "C"
			},
			{
				"id": "63",
				"code": "Q1",
				"lat": "-16",
				"lon": "37",
				"orbiter": "IV-137-H2",
				"tube_length": "1,65",
				"tube_width": "0,44",
				"crater_width": "",
				"roof_thickness": "",
				"rank": "C"
			},
			{
				"id": "64",
				"code": "R1",
				"lat": "29",
				"lon": "-29",
				"orbiter": "IV-85-M",
				"tube_length": "1,32",
				"tube_width": "1,1",
				"crater_width": "",
				"roof_thickness": "",
				"rank": "A"
			},
			{
				"id": "65",
				"code": "R2",
				"lat": "29",
				"lon": "-29",
				"orbiter": "IV-85-M",
				"tube_length": "7,15",
				"tube_width": "0,55",
				"crater_width": "0,66",
				"roof_thickness": "330",
				"rank": "A"
			},
			{
				"id": "66",
				"code": "S1",
				"lat": "20",
				"lon": "-30",
				"orbiter": "IV-78-H3",
				"tube_length": "",
				"tube_width": "",
				"crater_width": "",
				"roof_thickness": "",
				"rank": "C"
			},
			{
				"id": "67",
				"code": "S2",
				"lat": "1",
				"lon": "-28",
				"orbiter": "IV-78-H3",
				"tube_length": "",
				"tube_width": "",
				"crater_width": "",
				"roof_thickness": "",
				"rank": "C"
			}
		]
	}
}